{"_id":{"$oid":"59a1aab644920220462711c6"},"id":1,"name":"Ruby on Rails Tote","description":"Ut deleniti occaecati ea fuga quam et libero. Cumque et velit provident est hic doloribus nostrum aut. Dolores eum nihil vitae voluptates.","price":"15.99","display_price":"$15.99","available_on":"2017-08-16T12:07:33.174Z","slug":"ruby-on-rails-tote","meta_description":null,"meta_keywords":null,"shipping_category_id":1,"taxon_ids":[3,11],"total_on_hand":0,"master":{"id":1,"name":"Ruby on Rails Tote","sku":"ROR-00011","price":"15.99","weight":"0.0","height":null,"width":null,"depth":null,"is_master":true,"slug":"ruby-on-rails-tote","description":"Ut deleniti occaecati ea fuga quam et libero. Cumque et velit provident est hic doloribus nostrum aut. Dolores eum nihil vitae voluptates.","track_inventory":true,"option_values":[],"images":[{"id":21,"position":1,"attachment_content_type":"image/jpeg","attachment_file_name":"ror_tote.jpeg","type":"Spree::Image","attachment_updated_at":"2017-08-16T12:08:23.312Z","attachment_width":360,"attachment_height":360,"alt":null,"viewable_type":"Spree::Variant","viewable_id":1,"mini_url":"/spree/products/21/mini/ror_tote.jpeg?1502885303","small_url":"/spree/products/21/small/ror_tote.jpeg?1502885303","product_url":"/spree/products/21/product/ror_tote.jpeg?1502885303","large_url":"/spree/products/21/large/ror_tote.jpeg?1502885303"},{"id":22,"position":2,"attachment_content_type":"image/jpeg","attachment_file_name":"ror_tote_back.jpeg","type":"Spree::Image","attachment_updated_at":"2017-08-16T12:08:24.568Z","attachment_width":360,"attachment_height":360,"alt":null,"viewable_type":"Spree::Variant","viewable_id":1,"mini_url":"/spree/products/22/mini/ror_tote_back.jpeg?1502885304","small_url":"/spree/products/22/small/ror_tote_back.jpeg?1502885304","product_url":"/spree/products/22/product/ror_tote_back.jpeg?1502885304","large_url":"/spree/products/22/large/ror_tote_back.jpeg?1502885304"}],"display_price":"$15.99","options_text":"","in_stock":false,"is_backorderable":false,"total_on_hand":0,"is_destroyed":false},"variants":[],"option_types":[],"product_properties":[{"id":25,"product_id":1,"property_id":9,"value":"Tote","property_name":"Type"},{"id":26,"product_id":1,"property_id":10,"value":"15\" x 18\" x 6\"","property_name":"Size"},{"id":27,"product_id":1,"property_id":11,"value":"Canvas","property_name":"Material"}],"classifications":[{"taxon_id":3,"position":1,"taxon":{"id":3,"name":"Bags","pretty_name":"Categories -\u003e Bags","permalink":"categories/bags","parent_id":1,"taxonomy_id":1,"taxons":[]}},{"taxon_id":11,"position":1,"taxon":{"id":11,"name":"Rails","pretty_name":"Brand -\u003e Rails","permalink":"brand/rails","parent_id":2,"taxonomy_id":2,"taxons":[]}}],"has_variants":false}
{"_id":{"$oid":"59a1aab644920220462711c7"},"id":2,"name":"Ruby on Rails Bag","description":"Ut deleniti occaecati ea fuga quam et libero. Cumque et velit provident est hic doloribus nostrum aut. Dolores eum nihil vitae voluptates.","price":"22.99","display_price":"$22.99","available_on":"2017-08-16T12:07:33.174Z","slug":"ruby-on-rails-bag","meta_description":null,"meta_keywords":null,"shipping_category_id":1,"taxon_ids":[3,11],"total_on_hand":0,"master":{"id":2,"name":"Ruby on Rails Bag","sku":"ROR-00012","price":"22.99","weight":"0.0","height":null,"width":null,"depth":null,"is_master":true,"slug":"ruby-on-rails-bag","description":"Ut deleniti occaecati ea fuga quam et libero. Cumque et velit provident est hic doloribus nostrum aut. Dolores eum nihil vitae voluptates.","track_inventory":true,"option_values":[],"images":[{"id":23,"position":1,"attachment_content_type":"image/jpeg","attachment_file_name":"ror_bag.jpeg","type":"Spree::Image","attachment_updated_at":"2017-08-16T12:08:25.967Z","attachment_width":360,"attachment_height":360,"alt":null,"viewable_type":"Spree::Variant","viewable_id":2,"mini_url":"/spree/products/23/mini/ror_bag.jpeg?1502885305","small_url":"/spree/products/23/small/ror_bag.jpeg?1502885305","product_url":"/spree/products/23/product/ror_bag.jpeg?1502885305","large_url":"/spree/products/23/large/ror_bag.jpeg?1502885305"}],"display_price":"$22.99","options_text":"","in_stock":false,"is_backorderable":false,"total_on_hand":0,"is_destroyed":false},"variants":[],"option_types":[],"product_properties":[{"id":28,"product_id":2,"property_id":9,"value":"Messenger","property_name":"Type"},{"id":29,"product_id":2,"property_id":10,"value":"14 1/2\" x 12\" x 5\"","property_name":"Size"},{"id":30,"product_id":2,"property_id":11,"value":"600 Denier Polyester","property_name":"Material"}],"classifications":[{"taxon_id":3,"position":2,"taxon":{"id":3,"name":"Bags","pretty_name":"Categories -\u003e Bags","permalink":"categories/bags","parent_id":1,"taxonomy_id":1,"taxons":[]}},{"taxon_id":11,"position":2,"taxon":{"id":11,"name":"Rails","pretty_name":"Brand -\u003e Rails","permalink":"brand/rails","parent_id":2,"taxonomy_id":2,"taxons":[]}}],"has_variants":false}
{"_id":{"$oid":"59a1aab644920220462711c8"},"id":3,"name":"Ruby on Rails Baseball Jersey","description":"Ut deleniti occaecati ea fuga quam et libero. Cumque et velit provident est hic doloribus nostrum aut. Dolores eum nihil vitae voluptates.","price":"19.99","display_price":"$19.99","available_on":"2017-08-16T12:07:33.174Z","slug":"ruby-on-rails-baseball-jersey","meta_description":null,"meta_keywords":null,"shipping_category_id":1,"taxon_ids":[7,11],"total_on_hand":106,"master":{"id":3,"name":"Ruby on Rails Baseball Jersey","sku":"ROR-001","price":"19.99","weight":"0.0","height":null,"width":null,"depth":null,"is_master":true,"slug":"ruby-on-rails-baseball-jersey","description":"Ut deleniti occaecati ea fuga quam et libero. Cumque et velit provident est hic doloribus nostrum aut. Dolores eum nihil vitae voluptates.","track_inventory":true,"option_values":[],"images":[{"id":24,"position":1,"attachment_content_type":"image/jpeg","attachment_file_name":"ror_baseball.jpeg","type":"Spree::Image","attachment_updated_at":"2017-08-16T12:08:28.340Z","attachment_width":360,"attachment_height":360,"alt":null,"viewable_type":"Spree::Variant","viewable_id":3,"mini_url":"/spree/products/24/mini/ror_baseball.jpeg?1502885308","small_url":"/spree/products/24/small/ror_baseball.jpeg?1502885308","product_url":"/spree/products/24/product/ror_baseball.jpeg?1502885308","large_url":"/spree/products/24/large/ror_baseball.jpeg?1502885308"},{"id":25,"position":2,"attachment_content_type":"image/jpeg","attachment_file_name":"ror_baseball_back.jpeg","type":"Spree::Image","attachment_updated_at":"2017-08-16T12:08:30.559Z","attachment_width":360,"attachment_height":360,"alt":null,"viewable_type":"Spree::Variant","viewable_id":3,"mini_url":"/spree/products/25/mini/ror_baseball_back.jpeg?1502885310","small_url":"/spree/products/25/small/ror_baseball_back.jpeg?1502885310","product_url":"/spree/products/25/product/ror_baseball_back.jpeg?1502885310","large_url":"/spree/products/25/large/ror_baseball_back.jpeg?1502885310"}],"display_price":"$19.99","options_text":"","in_stock":true,"is_backorderable":false,"total_on_hand":7,"is_destroyed":false},"variants":[{"id":17,"name":"Ruby on Rails Baseball Jersey","sku":"ROR-00001","price":"19.99","weight":"0.0","height":null,"width":null,"depth":null,"is_master":false,"slug":"ruby-on-rails-baseball-jersey","description":"Ut deleniti occaecati ea fuga quam et libero. Cumque et velit provident est hic doloribus nostrum aut. Dolores eum nihil vitae voluptates.","track_inventory":true,"option_values":[{"id":1,"name":"Small","presentation":"S","option_type_name":"tshirt-size","option_type_id":1,"option_type_presentation":"Size"},{"id":5,"name":"Red","presentation":"Red","option_type_name":"tshirt-color","option_type_id":2,"option_type_presentation":"Color"}],"images":[{"id":1,"position":1,"attachment_content_type":"image/png","attachment_file_name":"ror_baseball_jersey_red.png","type":"Spree::Image","attachment_updated_at":"2017-08-16T12:08:06.089Z","attachment_width":240,"attachment_height":240,"alt":null,"viewable_type":"Spree::Variant","viewable_id":17,"mini_url":"/spree/products/1/mini/ror_baseball_jersey_red.png?1502885286","small_url":"/spree/products/1/small/ror_baseball_jersey_red.png?1502885286","product_url":"/spree/products/1/product/ror_baseball_jersey_red.png?1502885286","large_url":"/spree/products/1/large/ror_baseball_jersey_red.png?1502885286"},{"id":2,"position":2,"attachment_content_type":"image/png","attachment_file_name":"ror_baseball_jersey_back_red.png","type":"Spree::Image","attachment_updated_at":"2017-08-16T12:08:07.406Z","attachment_width":240,"attachment_height":240,"alt":null,"viewable_type":"Spree::Variant","viewable_id":17,"mini_url":"/spree/products/2/mini/ror_baseball_jersey_back_red.png?1502885287","small_url":"/spree/products/2/small/ror_baseball_jersey_back_red.png?1502885287","product_url":"/spree/products/2/product/ror_baseball_jersey_back_red.png?1502885287","large_url":"/spree/products/2/large/ror_baseball_jersey_back_red.png?1502885287"}],"display_price":"$19.99","options_text":"Size: S, Color: Red","in_stock":true,"is_backorderable":false,"total_on_hand":10,"is_destroyed":false},{"id":18,"name":"Ruby on Rails Baseball Jersey","sku":"ROR-00002","price":"19.99","weight":"0.0","height":null,"width":null,"depth":null,"is_master":false,"slug":"ruby-on-rails-baseball-jersey","description":"Ut deleniti occaecati ea fuga quam et libero. Cumque et velit provident est hic doloribus nostrum aut. Dolores eum nihil vitae voluptates.","track_inventory":true,"option_values":[{"id":1,"name":"Small","presentation":"S","option_type_name":"tshirt-size","option_type_id":1,"option_type_presentation":"Size"},{"id":7,"name":"Blue","presentation":"Blue","option_type_name":"tshirt-color","option_type_id":2,"option_type_presentation":"Color"}],"images":[{"id":3,"position":1,"attachment_content_type":"image/png","attachment_file_name":"ror_baseball_jersey_blue.png","type":"Spree::Image","attachment_updated_at":"2017-08-16T12:08:08.181Z","attachment_width":240,"attachment_height":240,"alt":null,"viewable_type":"Spree::Variant","viewable_id":18,"mini_url":"/spree/products/3/mini/ror_baseball_jersey_blue.png?1502885288","small_url":"/spree/products/3/small/ror_baseball_jersey_blue.png?1502885288","product_url":"/spree/products/3/product/ror_baseball_jersey_blue.png?1502885288","large_url":"/spree/products/3/large/ror_baseball_jersey_blue.png?1502885288"},{"id":4,"position":2,"attachment_content_type":"image/png","attachment_file_name":"ror_baseball_jersey_back_blue.png","type":"Spree::Image","attachment_updated_at":"2017-08-16T12:08:09.156Z","attachment_width":240,"attachment_height":240,"alt":null,"viewable_type":"Spree::Variant","viewable_id":18,"mini_url":"/spree/products/4/mini/ror_baseball_jersey_back_blue.png?1502885289","small_url":"/spree/products/4/small/ror_baseball_jersey_back_blue.png?1502885289","product_url":"/spree/products/4/product/ror_baseball_jersey_back_blue.png?1502885289","large_url":"/spree/products/4/large/ror_baseball_jersey_back_blue.png?1502885289"}],"display_price":"$19.99","options_text":"Size: S, Color: Blue","in_stock":true,"is_backorderable":false,"total_on_hand":10,"is_destroyed":false},{"id":19,"name":"Ruby on Rails Baseball Jersey","sku":"ROR-00003","price":"19.99","weight":"0.0","height":null,"width":null,"depth":null,"is_master":false,"slug":"ruby-on-rails-baseball-jersey","description":"Ut deleniti occaecati ea fuga quam et libero. Cumque et velit provident est hic doloribus nostrum aut. Dolores eum nihil vitae voluptates.","track_inventory":true,"option_values":[{"id":1,"name":"Small","presentation":"S","option_type_name":"tshirt-size","option_type_id":1,"option_type_presentation":"Size"},{"id":6,"name":"Green","presentation":"Green","option_type_name":"tshirt-color","option_type_id":2,"option_type_presentation":"Color"}],"images":[{"id":5,"position":1,"attachment_content_type":"image/png","attachment_file_name":"ror_baseball_jersey_green.png","type":"Spree::Image","attachment_updated_at":"2017-08-16T12:08:10.614Z","attachment_width":240,"attachment_height":240,"alt":null,"viewable_type":"Spree::Variant","viewable_id":19,"mini_url":"/spree/products/5/mini/ror_baseball_jersey_green.png?1502885290","small_url":"/spree/products/5/small/ror_baseball_jersey_green.png?1502885290","product_url":"/spree/products/5/product/ror_baseball_jersey_green.png?1502885290","large_url":"/spree/products/5/large/ror_baseball_jersey_green.png?1502885290"},{"id":6,"position":2,"attachment_content_type":"image/png","attachment_file_name":"ror_baseball_jersey_back_green.png","type":"Spree::Image","attachment_updated_at":"2017-08-16T12:08:11.730Z","attachment_width":240,"attachment_height":240,"alt":null,"viewable_type":"Spree::Variant","viewable_id":19,"mini_url":"/spree/products/6/mini/ror_baseball_jersey_back_green.png?1502885291","small_url":"/spree/products/6/small/ror_baseball_jersey_back_green.png?1502885291","product_url":"/spree/products/6/product/ror_baseball_jersey_back_green.png?1502885291","large_url":"/spree/products/6/large/ror_baseball_jersey_back_green.png?1502885291"}],"display_price":"$19.99","options_text":"Size: S, Color: Green","in_stock":true,"is_backorderable":false,"total_on_hand":10,"is_destroyed":false},{"id":20,"name":"Ruby on Rails Baseball Jersey","sku":"ROR-00004","price":"19.99","weight":"0.0","height":null,"width":null,"depth":null,"is_master":false,"slug":"ruby-on-rails-baseball-jersey","description":"Ut deleniti occaecati ea fuga quam et libero. Cumque et velit provident est hic doloribus nostrum aut. Dolores eum nihil vitae voluptates.","track_inventory":true,"option_values":[{"id":2,"name":"Medium","presentation":"M","option_type_name":"tshirt-size","option_type_id":1,"option_type_presentation":"Size"},{"id":5,"name":"Red","presentation":"Red","option_type_name":"tshirt-color","option_type_id":2,"option_type_presentation":"Color"}],"images":[{"id":7,"position":1,"attachment_content_type":"image/png","attachment_file_name":"ror_baseball_jersey_red.png","type":"Spree::Image","attachment_updated_at":"2017-08-16T12:08:12.765Z","attachment_width":240,"attachment_height":240,"alt":null,"viewable_type":"Spree::Variant","viewable_id":20,"mini_url":"/spree/products/7/mini/ror_baseball_jersey_red.png?1502885292","small_url":"/spree/products/7/small/ror_baseball_jersey_red.png?1502885292","product_url":"/spree/products/7/product/ror_baseball_jersey_red.png?1502885292","large_url":"/spree/products/7/large/ror_baseball_jersey_red.png?1502885292"},{"id":8,"position":2,"attachment_content_type":"image/png","attachment_file_name":"ror_baseball_jersey_back_red.png","type":"Spree::Image","attachment_updated_at":"2017-08-16T12:08:13.482Z","attachment_width":240,"attachment_height":240,"alt":null,"viewable_type":"Spree::Variant","viewable_id":20,"mini_url":"/spree/products/8/mini/ror_baseball_jersey_back_red.png?1502885293","small_url":"/spree/products/8/small/ror_baseball_jersey_back_red.png?1502885293","product_url":"/spree/products/8/product/ror_baseball_jersey_back_red.png?1502885293","large_url":"/spree/products/8/large/ror_baseball_jersey_back_red.png?1502885293"}],"display_price":"$19.99","options_text":"Size: M, Color: Red","in_stock":true,"is_backorderable":false,"total_on_hand":10,"is_destroyed":false},{"id":21,"name":"Ruby on Rails Baseball Jersey","sku":"ROR-00005","price":"19.99","weight":"0.0","height":null,"width":null,"depth":null,"is_master":false,"slug":"ruby-on-rails-baseball-jersey","description":"Ut deleniti occaecati ea fuga quam et libero. Cumque et velit provident est hic doloribus nostrum aut. Dolores eum nihil vitae voluptates.","track_inventory":true,"option_values":[{"id":2,"name":"Medium","presentation":"M","option_type_name":"tshirt-size","option_type_id":1,"option_type_presentation":"Size"},{"id":7,"name":"Blue","presentation":"Blue","option_type_name":"tshirt-color","option_type_id":2,"option_type_presentation":"Color"}],"images":[{"id":9,"position":1,"attachment_content_type":"image/png","attachment_file_name":"ror_baseball_jersey_blue.png","type":"Spree::Image","attachment_updated_at":"2017-08-16T12:08:14.271Z","attachment_width":240,"attachment_height":240,"alt":null,"viewable_type":"Spree::Variant","viewable_id":21,"mini_url":"/spree/products/9/mini/ror_baseball_jersey_blue.png?1502885294","small_url":"/spree/products/9/small/ror_baseball_jersey_blue.png?1502885294","product_url":"/spree/products/9/product/ror_baseball_jersey_blue.png?1502885294","large_url":"/spree/products/9/large/ror_baseball_jersey_blue.png?1502885294"},{"id":10,"position":2,"attachment_content_type":"image/png","attachment_file_name":"ror_baseball_jersey_back_blue.png","type":"Spree::Image","attachment_updated_at":"2017-08-16T12:08:15.269Z","attachment_width":240,"attachment_height":240,"alt":null,"viewable_type":"Spree::Variant","viewable_id":21,"mini_url":"/spree/products/10/mini/ror_baseball_jersey_back_blue.png?1502885295","small_url":"/spree/products/10/small/ror_baseball_jersey_back_blue.png?1502885295","product_url":"/spree/products/10/product/ror_baseball_jersey_back_blue.png?1502885295","large_url":"/spree/products/10/large/ror_baseball_jersey_back_blue.png?1502885295"}],"display_price":"$19.99","options_text":"Size: M, Color: Blue","in_stock":true,"is_backorderable":false,"total_on_hand":10,"is_destroyed":false},{"id":22,"name":"Ruby on Rails Baseball Jersey","sku":"ROR-00006","price":"19.99","weight":"0.0","height":null,"width":null,"depth":null,"is_master":false,"slug":"ruby-on-rails-baseball-jersey","description":"Ut deleniti occaecati ea fuga quam et libero. Cumque et velit provident est hic doloribus nostrum aut. Dolores eum nihil vitae voluptates.","track_inventory":true,"option_values":[{"id":2,"name":"Medium","presentation":"M","option_type_name":"tshirt-size","option_type_id":1,"option_type_presentation":"Size"},{"id":6,"name":"Green","presentation":"Green","option_type_name":"tshirt-color","option_type_id":2,"option_type_presentation":"Color"}],"images":[{"id":11,"position":1,"attachment_content_type":"image/png","attachment_file_name":"ror_baseball_jersey_green.png","type":"Spree::Image","attachment_updated_at":"2017-08-16T12:08:16.117Z","attachment_width":240,"attachment_height":240,"alt":null,"viewable_type":"Spree::Variant","viewable_id":22,"mini_url":"/spree/products/11/mini/ror_baseball_jersey_green.png?1502885296","small_url":"/spree/products/11/small/ror_baseball_jersey_green.png?1502885296","product_url":"/spree/products/11/product/ror_baseball_jersey_green.png?1502885296","large_url":"/spree/products/11/large/ror_baseball_jersey_green.png?1502885296"},{"id":12,"position":2,"attachment_content_type":"image/png","attachment_file_name":"ror_baseball_jersey_back_green.png","type":"Spree::Image","attachment_updated_at":"2017-08-16T12:08:16.599Z","attachment_width":240,"attachment_height":240,"alt":null,"viewable_type":"Spree::Variant","viewable_id":22,"mini_url":"/spree/products/12/mini/ror_baseball_jersey_back_green.png?1502885296","small_url":"/spree/products/12/small/ror_baseball_jersey_back_green.png?1502885296","product_url":"/spree/products/12/product/ror_baseball_jersey_back_green.png?1502885296","large_url":"/spree/products/12/large/ror_baseball_jersey_back_green.png?1502885296"}],"display_price":"$19.99","options_text":"Size: M, Color: Green","in_stock":true,"is_backorderable":false,"total_on_hand":10,"is_destroyed":false},{"id":23,"name":"Ruby on Rails Baseball Jersey","sku":"ROR-00007","price":"19.99","weight":"0.0","height":null,"width":null,"depth":null,"is_master":false,"slug":"ruby-on-rails-baseball-jersey","description":"Ut deleniti occaecati ea fuga quam et libero. Cumque et velit provident est hic doloribus nostrum aut. Dolores eum nihil vitae voluptates.","track_inventory":true,"option_values":[{"id":3,"name":"Large","presentation":"L","option_type_name":"tshirt-size","option_type_id":1,"option_type_presentation":"Size"},{"id":5,"name":"Red","presentation":"Red","option_type_name":"tshirt-color","option_type_id":2,"option_type_presentation":"Color"}],"images":[{"id":13,"position":1,"attachment_content_type":"image/png","attachment_file_name":"ror_baseball_jersey_red.png","type":"Spree::Image","attachment_updated_at":"2017-08-16T12:08:17.857Z","attachment_width":240,"attachment_height":240,"alt":null,"viewable_type":"Spree::Variant","viewable_id":23,"mini_url":"/spree/products/13/mini/ror_baseball_jersey_red.png?1502885297","small_url":"/spree/products/13/small/ror_baseball_jersey_red.png?1502885297","product_url":"/spree/products/13/product/ror_baseball_jersey_red.png?1502885297","large_url":"/spree/products/13/large/ror_baseball_jersey_red.png?1502885297"},{"id":14,"position":2,"attachment_content_type":"image/png","attachment_file_name":"ror_baseball_jersey_back_red.png","type":"Spree::Image","attachment_updated_at":"2017-08-16T12:08:18.608Z","attachment_width":240,"attachment_height":240,"alt":null,"viewable_type":"Spree::Variant","viewable_id":23,"mini_url":"/spree/products/14/mini/ror_baseball_jersey_back_red.png?1502885298","small_url":"/spree/products/14/small/ror_baseball_jersey_back_red.png?1502885298","product_url":"/spree/products/14/product/ror_baseball_jersey_back_red.png?1502885298","large_url":"/spree/products/14/large/ror_baseball_jersey_back_red.png?1502885298"}],"display_price":"$19.99","options_text":"Size: L, Color: Red","in_stock":true,"is_backorderable":false,"total_on_hand":10,"is_destroyed":false},{"id":24,"name":"Ruby on Rails Baseball Jersey","sku":"ROR-00008","price":"19.99","weight":"0.0","height":null,"width":null,"depth":null,"is_master":false,"slug":"ruby-on-rails-baseball-jersey","description":"Ut deleniti occaecati ea fuga quam et libero. Cumque et velit provident est hic doloribus nostrum aut. Dolores eum nihil vitae voluptates.","track_inventory":true,"option_values":[{"id":3,"name":"Large","presentation":"L","option_type_name":"tshirt-size","option_type_id":1,"option_type_presentation":"Size"},{"id":7,"name":"Blue","presentation":"Blue","option_type_name":"tshirt-color","option_type_id":2,"option_type_presentation":"Color"}],"images":[{"id":15,"position":1,"attachment_content_type":"image/png","attachment_file_name":"ror_baseball_jersey_blue.png","type":"Spree::Image","attachment_updated_at":"2017-08-16T12:08:18.953Z","attachment_width":240,"attachment_height":240,"alt":null,"viewable_type":"Spree::Variant","viewable_id":24,"mini_url":"/spree/products/15/mini/ror_baseball_jersey_blue.png?1502885298","small_url":"/spree/products/15/small/ror_baseball_jersey_blue.png?1502885298","product_url":"/spree/products/15/product/ror_baseball_jersey_blue.png?1502885298","large_url":"/spree/products/15/large/ror_baseball_jersey_blue.png?1502885298"},{"id":16,"position":2,"attachment_content_type":"image/png","attachment_file_name":"ror_baseball_jersey_back_blue.png","type":"Spree::Image","attachment_updated_at":"2017-08-16T12:08:19.312Z","attachment_width":240,"attachment_height":240,"alt":null,"viewable_type":"Spree::Variant","viewable_id":24,"mini_url":"/spree/products/16/mini/ror_baseball_jersey_back_blue.png?1502885299","small_url":"/spree/products/16/small/ror_baseball_jersey_back_blue.png?1502885299","product_url":"/spree/products/16/product/ror_baseball_jersey_back_blue.png?1502885299","large_url":"/spree/products/16/large/ror_baseball_jersey_back_blue.png?1502885299"}],"display_price":"$19.99","options_text":"Size: L, Color: Blue","in_stock":true,"is_backorderable":false,"total_on_hand":10,"is_destroyed":false},{"id":25,"name":"Ruby on Rails Baseball Jersey","sku":"ROR-00009","price":"19.99","weight":"0.0","height":null,"width":null,"depth":null,"is_master":false,"slug":"ruby-on-rails-baseball-jersey","description":"Ut deleniti occaecati ea fuga quam et libero. Cumque et velit provident est hic doloribus nostrum aut. Dolores eum nihil vitae voluptates.","track_inventory":true,"option_values":[{"id":3,"name":"Large","presentation":"L","option_type_name":"tshirt-size","option_type_id":1,"option_type_presentation":"Size"},{"id":6,"name":"Green","presentation":"Green","option_type_name":"tshirt-color","option_type_id":2,"option_type_presentation":"Color"}],"images":[{"id":17,"position":1,"attachment_content_type":"image/png","attachment_file_name":"ror_baseball_jersey_green.png","type":"Spree::Image","attachment_updated_at":"2017-08-16T12:08:19.991Z","attachment_width":240,"attachment_height":240,"alt":null,"viewable_type":"Spree::Variant","viewable_id":25,"mini_url":"/spree/products/17/mini/ror_baseball_jersey_green.png?1502885299","small_url":"/spree/products/17/small/ror_baseball_jersey_green.png?1502885299","product_url":"/spree/products/17/product/ror_baseball_jersey_green.png?1502885299","large_url":"/spree/products/17/large/ror_baseball_jersey_green.png?1502885299"},{"id":18,"position":2,"attachment_content_type":"image/png","attachment_file_name":"ror_baseball_jersey_back_green.png","type":"Spree::Image","attachment_updated_at":"2017-08-16T12:08:20.648Z","attachment_width":240,"attachment_height":240,"alt":null,"viewable_type":"Spree::Variant","viewable_id":25,"mini_url":"/spree/products/18/mini/ror_baseball_jersey_back_green.png?1502885300","small_url":"/spree/products/18/small/ror_baseball_jersey_back_green.png?1502885300","product_url":"/spree/products/18/product/ror_baseball_jersey_back_green.png?1502885300","large_url":"/spree/products/18/large/ror_baseball_jersey_back_green.png?1502885300"}],"display_price":"$19.99","options_text":"Size: L, Color: Green","in_stock":true,"is_backorderable":false,"total_on_hand":9,"is_destroyed":false},{"id":26,"name":"Ruby on Rails Baseball Jersey","sku":"ROR-00010","price":"19.99","weight":"0.0","height":null,"width":null,"depth":null,"is_master":false,"slug":"ruby-on-rails-baseball-jersey","description":"Ut deleniti occaecati ea fuga quam et libero. Cumque et velit provident est hic doloribus nostrum aut. Dolores eum nihil vitae voluptates.","track_inventory":true,"option_values":[{"id":4,"name":"Extra Large","presentation":"XL","option_type_name":"tshirt-size","option_type_id":1,"option_type_presentation":"Size"},{"id":6,"name":"Green","presentation":"Green","option_type_name":"tshirt-color","option_type_id":2,"option_type_presentation":"Color"}],"images":[{"id":19,"position":1,"attachment_content_type":"image/png","attachment_file_name":"ror_baseball_jersey_green.png","type":"Spree::Image","attachment_updated_at":"2017-08-16T12:08:21.760Z","attachment_width":240,"attachment_height":240,"alt":null,"viewable_type":"Spree::Variant","viewable_id":26,"mini_url":"/spree/products/19/mini/ror_baseball_jersey_green.png?1502885301","small_url":"/spree/products/19/small/ror_baseball_jersey_green.png?1502885301","product_url":"/spree/products/19/product/ror_baseball_jersey_green.png?1502885301","large_url":"/spree/products/19/large/ror_baseball_jersey_green.png?1502885301"},{"id":20,"position":2,"attachment_content_type":"image/png","attachment_file_name":"ror_baseball_jersey_back_green.png","type":"Spree::Image","attachment_updated_at":"2017-08-16T12:08:22.630Z","attachment_width":240,"attachment_height":240,"alt":null,"viewable_type":"Spree::Variant","viewable_id":26,"mini_url":"/spree/products/20/mini/ror_baseball_jersey_back_green.png?1502885302","small_url":"/spree/products/20/small/ror_baseball_jersey_back_green.png?1502885302","product_url":"/spree/products/20/product/ror_baseball_jersey_back_green.png?1502885302","large_url":"/spree/products/20/large/ror_baseball_jersey_back_green.png?1502885302"}],"display_price":"$19.99","options_text":"Size: XL, Color: Green","in_stock":true,"is_backorderable":false,"total_on_hand":10,"is_destroyed":false}],"option_types":[{"id":1,"name":"tshirt-size","presentation":"Size","position":1},{"id":2,"name":"tshirt-color","presentation":"Color","position":2}],"product_properties":[{"id":1,"product_id":3,"property_id":1,"value":"Wilson","property_name":"Manufacturer"},{"id":2,"product_id":3,"property_id":2,"value":"Wannabe Sports","property_name":"Brand"},{"id":3,"product_id":3,"property_id":3,"value":"JK1002","property_name":"Model"},{"id":4,"product_id":3,"property_id":4,"value":"Baseball Jersey","property_name":"Shirt Type"},{"id":5,"product_id":3,"property_id":5,"value":"Long","property_name":"Sleeve Type"},{"id":6,"product_id":3,"property_id":6,"value":"100% cotton","property_name":"Made from"},{"id":7,"product_id":3,"property_id":7,"value":"Loose","property_name":"Fit"},{"id":8,"product_id":3,"property_id":8,"value":"Men's","property_name":"Gender"}],"classifications":[{"taxon_id":7,"position":1,"taxon":{"id":7,"name":"T-Shirts","pretty_name":"Categories -\u003e Clothing -\u003e T-Shirts","permalink":"categories/clothing/t-shirts","parent_id":5,"taxonomy_id":1,"taxons":[]}},{"taxon_id":11,"position":5,"taxon":{"id":11,"name":"Rails","pretty_name":"Brand -\u003e Rails","permalink":"brand/rails","parent_id":2,"taxonomy_id":2,"taxons":[]}}],"has_variants":true}
{"_id":{"$oid":"59a1aab644920220462711c9"},"id":4,"name":"Ruby on Rails Jr. Spaghetti","description":"Ut deleniti occaecati ea fuga quam et libero. Cumque et velit provident est hic doloribus nostrum aut. Dolores eum nihil vitae voluptates.","price":"19.99","display_price":"$19.99","available_on":"2017-08-16T12:07:33.174Z","slug":"ruby-on-rails-jr-spaghetti","meta_description":null,"meta_keywords":null,"shipping_category_id":1,"taxon_ids":[6,11],"total_on_hand":6,"master":{"id":4,"name":"Ruby on Rails Jr. Spaghetti","sku":"ROR-00013","price":"19.99","weight":"0.0","height":null,"width":null,"depth":null,"is_master":true,"slug":"ruby-on-rails-jr-spaghetti","description":"Ut deleniti occaecati ea fuga quam et libero. Cumque et velit provident est hic doloribus nostrum aut. Dolores eum nihil vitae voluptates.","track_inventory":true,"option_values":[],"images":[{"id":26,"position":1,"attachment_content_type":"image/jpeg","attachment_file_name":"ror_jr_spaghetti.jpeg","type":"Spree::Image","attachment_updated_at":"2017-08-16T12:08:32.397Z","attachment_width":360,"attachment_height":360,"alt":null,"viewable_type":"Spree::Variant","viewable_id":4,"mini_url":"/spree/products/26/mini/ror_jr_spaghetti.jpeg?1502885312","small_url":"/spree/products/26/small/ror_jr_spaghetti.jpeg?1502885312","product_url":"/spree/products/26/product/ror_jr_spaghetti.jpeg?1502885312","large_url":"/spree/products/26/large/ror_jr_spaghetti.jpeg?1502885312"}],"display_price":"$19.99","options_text":"","in_stock":true,"is_backorderable":false,"total_on_hand":6,"is_destroyed":false},"variants":[],"option_types":[],"product_properties":[{"id":9,"product_id":4,"property_id":1,"value":"Jerseys","property_name":"Manufacturer"},{"id":10,"product_id":4,"property_id":2,"value":"Resiliance","property_name":"Brand"},{"id":11,"product_id":4,"property_id":3,"value":"TL174","property_name":"Model"},{"id":12,"product_id":4,"property_id":4,"value":"Jr. Spaghetti T","property_name":"Shirt Type"},{"id":13,"product_id":4,"property_id":5,"value":"None","property_name":"Sleeve Type"},{"id":14,"product_id":4,"property_id":6,"value":"90% Cotton, 10% Nylon","property_name":"Made from"},{"id":15,"product_id":4,"property_id":7,"value":"Form","property_name":"Fit"},{"id":16,"product_id":4,"property_id":8,"value":"Women's","property_name":"Gender"}],"classifications":[{"taxon_id":6,"position":1,"taxon":{"id":6,"name":"Shirts","pretty_name":"Categories -\u003e Clothing -\u003e Shirts","permalink":"categories/clothing/shirts","parent_id":5,"taxonomy_id":1,"taxons":[]}},{"taxon_id":11,"position":6,"taxon":{"id":11,"name":"Rails","pretty_name":"Brand -\u003e Rails","permalink":"brand/rails","parent_id":2,"taxonomy_id":2,"taxons":[]}}],"has_variants":false}
{"_id":{"$oid":"59a1aab644920220462711ca"},"id":5,"name":"Ruby on Rails Ringer T-Shirt","description":"Ut deleniti occaecati ea fuga quam et libero. Cumque et velit provident est hic doloribus nostrum aut. Dolores eum nihil vitae voluptates.","price":"19.99","display_price":"$19.99","available_on":"2017-08-16T12:07:33.174Z","slug":"ruby-on-rails-ringer-t-shirt","meta_description":null,"meta_keywords":null,"shipping_category_id":1,"taxon_ids":[7,11],"total_on_hand":10,"master":{"id":5,"name":"Ruby on Rails Ringer T-Shirt","sku":"ROR-00015","price":"19.99","weight":"0.0","height":null,"width":null,"depth":null,"is_master":true,"slug":"ruby-on-rails-ringer-t-shirt","description":"Ut deleniti occaecati ea fuga quam et libero. Cumque et velit provident est hic doloribus nostrum aut. Dolores eum nihil vitae voluptates.","track_inventory":true,"option_values":[],"images":[{"id":29,"position":1,"attachment_content_type":"image/jpeg","attachment_file_name":"ror_ringer.jpeg","type":"Spree::Image","attachment_updated_at":"2017-08-16T12:08:35.460Z","attachment_width":360,"attachment_height":360,"alt":null,"viewable_type":"Spree::Variant","viewable_id":5,"mini_url":"/spree/products/29/mini/ror_ringer.jpeg?1502885315","small_url":"/spree/products/29/small/ror_ringer.jpeg?1502885315","product_url":"/spree/products/29/product/ror_ringer.jpeg?1502885315","large_url":"/spree/products/29/large/ror_ringer.jpeg?1502885315"},{"id":30,"position":2,"attachment_content_type":"image/jpeg","attachment_file_name":"ror_ringer_back.jpeg","type":"Spree::Image","attachment_updated_at":"2017-08-16T12:08:36.623Z","attachment_width":360,"attachment_height":360,"alt":null,"viewable_type":"Spree::Variant","viewable_id":5,"mini_url":"/spree/products/30/mini/ror_ringer_back.jpeg?1502885316","small_url":"/spree/products/30/small/ror_ringer_back.jpeg?1502885316","product_url":"/spree/products/30/product/ror_ringer_back.jpeg?1502885316","large_url":"/spree/products/30/large/ror_ringer_back.jpeg?1502885316"}],"display_price":"$19.99","options_text":"","in_stock":true,"is_backorderable":false,"total_on_hand":10,"is_destroyed":false},"variants":[],"option_types":[],"product_properties":[{"id":17,"product_id":5,"property_id":1,"value":"Jerseys","property_name":"Manufacturer"},{"id":18,"product_id":5,"property_id":2,"value":"Conditioned","property_name":"Brand"},{"id":19,"product_id":5,"property_id":3,"value":"TL9002","property_name":"Model"},{"id":20,"product_id":5,"property_id":4,"value":"Ringer T","property_name":"Shirt Type"},{"id":21,"product_id":5,"property_id":5,"value":"Short","property_name":"Sleeve Type"},{"id":22,"product_id":5,"property_id":6,"value":"100% Vellum","property_name":"Made from"},{"id":23,"product_id":5,"property_id":7,"value":"Loose","property_name":"Fit"},{"id":24,"product_id":5,"property_id":8,"value":"Men's","property_name":"Gender"}],"classifications":[{"taxon_id":7,"position":2,"taxon":{"id":7,"name":"T-Shirts","pretty_name":"Categories -\u003e Clothing -\u003e T-Shirts","permalink":"categories/clothing/t-shirts","parent_id":5,"taxonomy_id":1,"taxons":[]}},{"taxon_id":11,"position":7,"taxon":{"id":11,"name":"Rails","pretty_name":"Brand -\u003e Rails","permalink":"brand/rails","parent_id":2,"taxonomy_id":2,"taxons":[]}}],"has_variants":false}
{"_id":{"$oid":"59a1aab644920220462711cb"},"id":6,"name":"Ruby Baseball Jersey","description":"Ut deleniti occaecati ea fuga quam et libero. Cumque et velit provident est hic doloribus nostrum aut. Dolores eum nihil vitae voluptates.","price":"19.99","display_price":"$19.99","available_on":"2017-08-16T12:07:33.174Z","slug":"ruby-baseball-jersey","meta_description":null,"meta_keywords":null,"shipping_category_id":1,"taxon_ids":[8,7],"total_on_hand":8,"master":{"id":6,"name":"Ruby Baseball Jersey","sku":"RUB-00001","price":"19.99","weight":"0.0","height":null,"width":null,"depth":null,"is_master":true,"slug":"ruby-baseball-jersey","description":"Ut deleniti occaecati ea fuga quam et libero. Cumque et velit provident est hic doloribus nostrum aut. Dolores eum nihil vitae voluptates.","track_inventory":true,"option_values":[],"images":[{"id":34,"position":1,"attachment_content_type":"image/png","attachment_file_name":"ruby_baseball.png","type":"Spree::Image","attachment_updated_at":"2017-08-16T12:08:42.731Z","attachment_width":495,"attachment_height":477,"alt":null,"viewable_type":"Spree::Variant","viewable_id":6,"mini_url":"/spree/products/34/mini/ruby_baseball.png?1502885322","small_url":"/spree/products/34/small/ruby_baseball.png?1502885322","product_url":"/spree/products/34/product/ruby_baseball.png?1502885322","large_url":"/spree/products/34/large/ruby_baseball.png?1502885322"}],"display_price":"$19.99","options_text":"","in_stock":true,"is_backorderable":false,"total_on_hand":8,"is_destroyed":false},"variants":[],"option_types":[],"product_properties":[],"classifications":[{"taxon_id":7,"position":4,"taxon":{"id":7,"name":"T-Shirts","pretty_name":"Categories -\u003e Clothing -\u003e T-Shirts","permalink":"categories/clothing/t-shirts","parent_id":5,"taxonomy_id":1,"taxons":[]}},{"taxon_id":8,"position":1,"taxon":{"id":8,"name":"Ruby","pretty_name":"Brand -\u003e Ruby","permalink":"brand/ruby","parent_id":2,"taxonomy_id":2,"taxons":[]}}],"has_variants":false}
{"_id":{"$oid":"59a1aab644920220462711cc"},"id":7,"name":"Apache Baseball Jersey","description":"Ut deleniti occaecati ea fuga quam et libero. Cumque et velit provident est hic doloribus nostrum aut. Dolores eum nihil vitae voluptates.","price":"19.99","display_price":"$19.99","available_on":"2017-08-16T12:07:33.174Z","slug":"apache-baseball-jersey","meta_description":null,"meta_keywords":null,"shipping_category_id":1,"taxon_ids":[9,7],"total_on_hand":8,"master":{"id":7,"name":"Apache Baseball Jersey","sku":"APC-00001","price":"19.99","weight":"0.0","height":null,"width":null,"depth":null,"is_master":true,"slug":"apache-baseball-jersey","description":"Ut deleniti occaecati ea fuga quam et libero. Cumque et velit provident est hic doloribus nostrum aut. Dolores eum nihil vitae voluptates.","track_inventory":true,"option_values":[],"images":[{"id":33,"position":1,"attachment_content_type":"image/png","attachment_file_name":"apache_baseball.png","type":"Spree::Image","attachment_updated_at":"2017-08-16T12:08:41.281Z","attachment_width":504,"attachment_height":484,"alt":null,"viewable_type":"Spree::Variant","viewable_id":7,"mini_url":"/spree/products/33/mini/apache_baseball.png?1502885321","small_url":"/spree/products/33/small/apache_baseball.png?1502885321","product_url":"/spree/products/33/product/apache_baseball.png?1502885321","large_url":"/spree/products/33/large/apache_baseball.png?1502885321"}],"display_price":"$19.99","options_text":"","in_stock":true,"is_backorderable":false,"total_on_hand":8,"is_destroyed":false},"variants":[],"option_types":[],"product_properties":[],"classifications":[{"taxon_id":7,"position":3,"taxon":{"id":7,"name":"T-Shirts","pretty_name":"Categories -\u003e Clothing -\u003e T-Shirts","permalink":"categories/clothing/t-shirts","parent_id":5,"taxonomy_id":1,"taxons":[]}},{"taxon_id":9,"position":1,"taxon":{"id":9,"name":"Apache","pretty_name":"Brand -\u003e Apache","permalink":"brand/apache","parent_id":2,"taxonomy_id":2,"taxons":[]}}],"has_variants":false}
{"_id":{"$oid":"59a1aab644920220462711cd"},"id":8,"name":"Spree Baseball Jersey","description":"Ut deleniti occaecati ea fuga quam et libero. Cumque et velit provident est hic doloribus nostrum aut. Dolores eum nihil vitae voluptates.","price":"19.99","display_price":"$19.99","available_on":"2017-08-16T12:07:33.174Z","slug":"spree-baseball-jersey","meta_description":null,"meta_keywords":null,"shipping_category_id":1,"taxon_ids":[7,10],"total_on_hand":6,"master":{"id":8,"name":"Spree Baseball Jersey","sku":"SPR-00001","price":"19.99","weight":"0.0","height":null,"width":null,"depth":null,"is_master":true,"slug":"spree-baseball-jersey","description":"Ut deleniti occaecati ea fuga quam et libero. Cumque et velit provident est hic doloribus nostrum aut. Dolores eum nihil vitae voluptates.","track_inventory":true,"option_values":[],"images":[{"id":41,"position":1,"attachment_content_type":"image/jpeg","attachment_file_name":"spree_jersey.jpeg","type":"Spree::Image","attachment_updated_at":"2017-08-16T12:08:52.045Z","attachment_width":480,"attachment_height":480,"alt":null,"viewable_type":"Spree::Variant","viewable_id":8,"mini_url":"/spree/products/41/mini/spree_jersey.jpeg?1502885332","small_url":"/spree/products/41/small/spree_jersey.jpeg?1502885332","product_url":"/spree/products/41/product/spree_jersey.jpeg?1502885332","large_url":"/spree/products/41/large/spree_jersey.jpeg?1502885332"},{"id":42,"position":2,"attachment_content_type":"image/jpeg","attachment_file_name":"spree_jersey_back.jpeg","type":"Spree::Image","attachment_updated_at":"2017-08-16T12:08:53.503Z","attachment_width":480,"attachment_height":480,"alt":null,"viewable_type":"Spree::Variant","viewable_id":8,"mini_url":"/spree/products/42/mini/spree_jersey_back.jpeg?1502885333","small_url":"/spree/products/42/small/spree_jersey_back.jpeg?1502885333","product_url":"/spree/products/42/product/spree_jersey_back.jpeg?1502885333","large_url":"/spree/products/42/large/spree_jersey_back.jpeg?1502885333"}],"display_price":"$19.99","options_text":"","in_stock":true,"is_backorderable":false,"total_on_hand":6,"is_destroyed":false},"variants":[],"option_types":[{"id":1,"name":"tshirt-size","presentation":"Size","position":1},{"id":2,"name":"tshirt-color","presentation":"Color","position":2}],"product_properties":[{"id":43,"product_id":8,"property_id":1,"value":"Wilson","property_name":"Manufacturer"},{"id":44,"product_id":8,"property_id":2,"value":"Wannabe Sports","property_name":"Brand"},{"id":45,"product_id":8,"property_id":3,"value":"JK1002","property_name":"Model"},{"id":46,"product_id":8,"property_id":4,"value":"Baseball Jersey","property_name":"Shirt Type"},{"id":47,"product_id":8,"property_id":5,"value":"Long","property_name":"Sleeve Type"},{"id":48,"product_id":8,"property_id":6,"value":"100% cotton","property_name":"Made from"},{"id":49,"product_id":8,"property_id":7,"value":"Loose","property_name":"Fit"},{"id":50,"product_id":8,"property_id":8,"value":"Men's","property_name":"Gender"}],"classifications":[{"taxon_id":7,"position":5,"taxon":{"id":7,"name":"T-Shirts","pretty_name":"Categories -\u003e Clothing -\u003e T-Shirts","permalink":"categories/clothing/t-shirts","parent_id":5,"taxonomy_id":1,"taxons":[]}},{"taxon_id":10,"position":4,"taxon":{"id":10,"name":"Spree","pretty_name":"Brand -\u003e Spree","permalink":"brand/spree","parent_id":2,"taxonomy_id":2,"taxons":[]}}],"has_variants":false}
{"_id":{"$oid":"59a1aab644920220462711ce"},"id":9,"name":"Spree Jr. Spaghetti","description":"Ut deleniti occaecati ea fuga quam et libero. Cumque et velit provident est hic doloribus nostrum aut. Dolores eum nihil vitae voluptates.","price":"19.99","display_price":"$19.99","available_on":"2017-08-16T12:07:33.174Z","slug":"spree-jr-spaghetti","meta_description":null,"meta_keywords":null,"shipping_category_id":1,"taxon_ids":[6,10],"total_on_hand":10,"master":{"id":9,"name":"Spree Jr. Spaghetti","sku":"SPR-00013","price":"19.99","weight":"0.0","height":null,"width":null,"depth":null,"is_master":true,"slug":"spree-jr-spaghetti","description":"Ut deleniti occaecati ea fuga quam et libero. Cumque et velit provident est hic doloribus nostrum aut. Dolores eum nihil vitae voluptates.","track_inventory":true,"option_values":[],"images":[{"id":40,"position":1,"attachment_content_type":"image/jpeg","attachment_file_name":"spree_spaghetti.jpeg","type":"Spree::Image","attachment_updated_at":"2017-08-16T12:08:50.368Z","attachment_width":480,"attachment_height":480,"alt":null,"viewable_type":"Spree::Variant","viewable_id":9,"mini_url":"/spree/products/40/mini/spree_spaghetti.jpeg?1502885330","small_url":"/spree/products/40/small/spree_spaghetti.jpeg?1502885330","product_url":"/spree/products/40/product/spree_spaghetti.jpeg?1502885330","large_url":"/spree/products/40/large/spree_spaghetti.jpeg?1502885330"}],"display_price":"$19.99","options_text":"","in_stock":true,"is_backorderable":false,"total_on_hand":10,"is_destroyed":false},"variants":[],"option_types":[],"product_properties":[{"id":51,"product_id":9,"property_id":1,"value":"Jerseys","property_name":"Manufacturer"},{"id":52,"product_id":9,"property_id":2,"value":"Resiliance","property_name":"Brand"},{"id":53,"product_id":9,"property_id":3,"value":"TL174","property_name":"Model"},{"id":54,"product_id":9,"property_id":4,"value":"Jr. Spaghetti T","property_name":"Shirt Type"},{"id":55,"product_id":9,"property_id":5,"value":"None","property_name":"Sleeve Type"},{"id":56,"product_id":9,"property_id":6,"value":"90% Cotton, 10% Nylon","property_name":"Made from"},{"id":57,"product_id":9,"property_id":7,"value":"Form","property_name":"Fit"},{"id":58,"product_id":9,"property_id":8,"value":"Women's","property_name":"Gender"}],"classifications":[{"taxon_id":6,"position":2,"taxon":{"id":6,"name":"Shirts","pretty_name":"Categories -\u003e Clothing -\u003e Shirts","permalink":"categories/clothing/shirts","parent_id":5,"taxonomy_id":1,"taxons":[]}},{"taxon_id":10,"position":7,"taxon":{"id":10,"name":"Spree","pretty_name":"Brand -\u003e Spree","permalink":"brand/spree","parent_id":2,"taxonomy_id":2,"taxons":[]}}],"has_variants":false}
{"_id":{"$oid":"59a1aab644920220462711cf"},"id":10,"name":"Spree Ringer T-Shirt","description":"Ut deleniti occaecati ea fuga quam et libero. Cumque et velit provident est hic doloribus nostrum aut. Dolores eum nihil vitae voluptates.","price":"19.99","display_price":"$19.99","available_on":"2017-08-16T12:07:33.174Z","slug":"spree-ringer-t-shirt","meta_description":null,"meta_keywords":null,"shipping_category_id":1,"taxon_ids":[7,10],"total_on_hand":9,"master":{"id":10,"name":"Spree Ringer T-Shirt","sku":"SPR-00015","price":"19.99","weight":"0.0","height":null,"width":null,"depth":null,"is_master":true,"slug":"spree-ringer-t-shirt","description":"Ut deleniti occaecati ea fuga quam et libero. Cumque et velit provident est hic doloribus nostrum aut. Dolores eum nihil vitae voluptates.","track_inventory":true,"option_values":[],"images":[{"id":38,"position":1,"attachment_content_type":"image/jpeg","attachment_file_name":"spree_ringer_t.jpeg","type":"Spree::Image","attachment_updated_at":"2017-08-16T12:08:48.219Z","attachment_width":480,"attachment_height":480,"alt":null,"viewable_type":"Spree::Variant","viewable_id":10,"mini_url":"/spree/products/38/mini/spree_ringer_t.jpeg?1502885328","small_url":"/spree/products/38/small/spree_ringer_t.jpeg?1502885328","product_url":"/spree/products/38/product/spree_ringer_t.jpeg?1502885328","large_url":"/spree/products/38/large/spree_ringer_t.jpeg?1502885328"},{"id":39,"position":2,"attachment_content_type":"image/jpeg","attachment_file_name":"spree_ringer_t_back.jpeg","type":"Spree::Image","attachment_updated_at":"2017-08-16T12:08:49.227Z","attachment_width":480,"attachment_height":480,"alt":null,"viewable_type":"Spree::Variant","viewable_id":10,"mini_url":"/spree/products/39/mini/spree_ringer_t_back.jpeg?1502885329","small_url":"/spree/products/39/small/spree_ringer_t_back.jpeg?1502885329","product_url":"/spree/products/39/product/spree_ringer_t_back.jpeg?1502885329","large_url":"/spree/products/39/large/spree_ringer_t_back.jpeg?1502885329"}],"display_price":"$19.99","options_text":"","in_stock":true,"is_backorderable":false,"total_on_hand":9,"is_destroyed":false},"variants":[],"option_types":[],"product_properties":[{"id":59,"product_id":10,"property_id":1,"value":"Jerseys","property_name":"Manufacturer"},{"id":60,"product_id":10,"property_id":2,"value":"Conditioned","property_name":"Brand"},{"id":61,"product_id":10,"property_id":3,"value":"TL9002","property_name":"Model"},{"id":62,"product_id":10,"property_id":4,"value":"Ringer T","property_name":"Shirt Type"},{"id":63,"product_id":10,"property_id":5,"value":"Short","property_name":"Sleeve Type"},{"id":64,"product_id":10,"property_id":6,"value":"100% Vellum","property_name":"Made from"},{"id":65,"product_id":10,"property_id":7,"value":"Loose","property_name":"Fit"},{"id":66,"product_id":10,"property_id":8,"value":"Men's","property_name":"Gender"}],"classifications":[{"taxon_id":7,"position":6,"taxon":{"id":7,"name":"T-Shirts","pretty_name":"Categories -\u003e Clothing -\u003e T-Shirts","permalink":"categories/clothing/t-shirts","parent_id":5,"taxonomy_id":1,"taxons":[]}},{"taxon_id":10,"position":3,"taxon":{"id":10,"name":"Spree","pretty_name":"Brand -\u003e Spree","permalink":"brand/spree","parent_id":2,"taxonomy_id":2,"taxons":[]}}],"has_variants":false}
{"_id":{"$oid":"59a1aab644920220462711d0"},"id":11,"name":"Spree Tote","description":"Ut deleniti occaecati ea fuga quam et libero. Cumque et velit provident est hic doloribus nostrum aut. Dolores eum nihil vitae voluptates.","price":"15.99","display_price":"$15.99","available_on":"2017-08-16T12:07:33.174Z","slug":"spree-tote","meta_description":null,"meta_keywords":null,"shipping_category_id":1,"taxon_ids":[3,10],"total_on_hand":9,"master":{"id":11,"name":"Spree Tote","sku":"SPR-00011","price":"15.99","weight":"0.0","height":null,"width":null,"depth":null,"is_master":true,"slug":"spree-tote","description":"Ut deleniti occaecati ea fuga quam et libero. Cumque et velit provident est hic doloribus nostrum aut. Dolores eum nihil vitae voluptates.","track_inventory":true,"option_values":[],"images":[{"id":36,"position":1,"attachment_content_type":"image/jpeg","attachment_file_name":"spree_tote_front.jpeg","type":"Spree::Image","attachment_updated_at":"2017-08-16T12:08:45.128Z","attachment_width":480,"attachment_height":480,"alt":null,"viewable_type":"Spree::Variant","viewable_id":11,"mini_url":"/spree/products/36/mini/spree_tote_front.jpeg?1502885325","small_url":"/spree/products/36/small/spree_tote_front.jpeg?1502885325","product_url":"/spree/products/36/product/spree_tote_front.jpeg?1502885325","large_url":"/spree/products/36/large/spree_tote_front.jpeg?1502885325"},{"id":37,"position":2,"attachment_content_type":"image/jpeg","attachment_file_name":"spree_tote_back.jpeg","type":"Spree::Image","attachment_updated_at":"2017-08-16T12:08:46.358Z","attachment_width":480,"attachment_height":480,"alt":null,"viewable_type":"Spree::Variant","viewable_id":11,"mini_url":"/spree/products/37/mini/spree_tote_back.jpeg?1502885326","small_url":"/spree/products/37/small/spree_tote_back.jpeg?1502885326","product_url":"/spree/products/37/product/spree_tote_back.jpeg?1502885326","large_url":"/spree/products/37/large/spree_tote_back.jpeg?1502885326"}],"display_price":"$15.99","options_text":"","in_stock":true,"is_backorderable":false,"total_on_hand":9,"is_destroyed":false},"variants":[],"option_types":[],"product_properties":[{"id":39,"product_id":11,"property_id":9,"value":"Tote","property_name":"Type"},{"id":40,"product_id":11,"property_id":10,"value":"15\" x 18\" x 6\"","property_name":"Size"}],"classifications":[{"taxon_id":3,"position":3,"taxon":{"id":3,"name":"Bags","pretty_name":"Categories -\u003e Bags","permalink":"categories/bags","parent_id":1,"taxonomy_id":1,"taxons":[]}},{"taxon_id":10,"position":5,"taxon":{"id":10,"name":"Spree","pretty_name":"Brand -\u003e Spree","permalink":"brand/spree","parent_id":2,"taxonomy_id":2,"taxons":[]}}],"has_variants":false}
{"_id":{"$oid":"59a1aab644920220462711d1"},"id":12,"name":"Spree Bag","description":"Ut deleniti occaecati ea fuga quam et libero. Cumque et velit provident est hic doloribus nostrum aut. Dolores eum nihil vitae voluptates.","price":"22.99","display_price":"$22.99","available_on":"2017-08-16T12:07:33.174Z","slug":"spree-bag","meta_description":null,"meta_keywords":null,"shipping_category_id":1,"taxon_ids":[3,10],"total_on_hand":7,"master":{"id":12,"name":"Spree Bag","sku":"SPR-00012","price":"22.99","weight":"0.0","height":null,"width":null,"depth":null,"is_master":true,"slug":"spree-bag","description":"Ut deleniti occaecati ea fuga quam et libero. Cumque et velit provident est hic doloribus nostrum aut. Dolores eum nihil vitae voluptates.","track_inventory":true,"option_values":[],"images":[{"id":35,"position":1,"attachment_content_type":"image/jpeg","attachment_file_name":"spree_bag.jpeg","type":"Spree::Image","attachment_updated_at":"2017-08-16T12:08:44.138Z","attachment_width":480,"attachment_height":480,"alt":null,"viewable_type":"Spree::Variant","viewable_id":12,"mini_url":"/spree/products/35/mini/spree_bag.jpeg?1502885324","small_url":"/spree/products/35/small/spree_bag.jpeg?1502885324","product_url":"/spree/products/35/product/spree_bag.jpeg?1502885324","large_url":"/spree/products/35/large/spree_bag.jpeg?1502885324"}],"display_price":"$22.99","options_text":"","in_stock":true,"is_backorderable":false,"total_on_hand":7,"is_destroyed":false},"variants":[],"option_types":[],"product_properties":[{"id":41,"product_id":12,"property_id":9,"value":"Messenger","property_name":"Type"},{"id":42,"product_id":12,"property_id":10,"value":"14 1/2\" x 12\" x 5\"","property_name":"Size"}],"classifications":[{"taxon_id":3,"position":4,"taxon":{"id":3,"name":"Bags","pretty_name":"Categories -\u003e Bags","permalink":"categories/bags","parent_id":1,"taxonomy_id":1,"taxons":[]}},{"taxon_id":10,"position":6,"taxon":{"id":10,"name":"Spree","pretty_name":"Brand -\u003e Spree","permalink":"brand/spree","parent_id":2,"taxonomy_id":2,"taxons":[]}}],"has_variants":false}
{"_id":{"$oid":"59a1aab644920220462711d2"},"id":13,"name":"Ruby on Rails Mug","description":"Ut deleniti occaecati ea fuga quam et libero. Cumque et velit provident est hic doloribus nostrum aut. Dolores eum nihil vitae voluptates.","price":"13.99","display_price":"$13.99","available_on":"2017-08-16T12:07:33.174Z","slug":"ruby-on-rails-mug","meta_description":null,"meta_keywords":null,"shipping_category_id":1,"taxon_ids":[4,11],"total_on_hand":7,"master":{"id":13,"name":"Ruby on Rails Mug","sku":"ROR-00014","price":"13.99","weight":"0.0","height":null,"width":null,"depth":null,"is_master":true,"slug":"ruby-on-rails-mug","description":"Ut deleniti occaecati ea fuga quam et libero. Cumque et velit provident est hic doloribus nostrum aut. Dolores eum nihil vitae voluptates.","track_inventory":true,"option_values":[],"images":[{"id":27,"position":1,"attachment_content_type":"image/jpeg","attachment_file_name":"ror_mug.jpeg","type":"Spree::Image","attachment_updated_at":"2017-08-16T12:08:33.404Z","attachment_width":360,"attachment_height":360,"alt":null,"viewable_type":"Spree::Variant","viewable_id":13,"mini_url":"/spree/products/27/mini/ror_mug.jpeg?1502885313","small_url":"/spree/products/27/small/ror_mug.jpeg?1502885313","product_url":"/spree/products/27/product/ror_mug.jpeg?1502885313","large_url":"/spree/products/27/large/ror_mug.jpeg?1502885313"},{"id":28,"position":2,"attachment_content_type":"image/jpeg","attachment_file_name":"ror_mug_back.jpeg","type":"Spree::Image","attachment_updated_at":"2017-08-16T12:08:34.545Z","attachment_width":360,"attachment_height":360,"alt":null,"viewable_type":"Spree::Variant","viewable_id":13,"mini_url":"/spree/products/28/mini/ror_mug_back.jpeg?1502885314","small_url":"/spree/products/28/small/ror_mug_back.jpeg?1502885314","product_url":"/spree/products/28/product/ror_mug_back.jpeg?1502885314","large_url":"/spree/products/28/large/ror_mug_back.jpeg?1502885314"}],"display_price":"$13.99","options_text":"","in_stock":true,"is_backorderable":false,"total_on_hand":7,"is_destroyed":false},"variants":[],"option_types":[],"product_properties":[{"id":31,"product_id":13,"property_id":9,"value":"Mug","property_name":"Type"},{"id":32,"product_id":13,"property_id":10,"value":"4.5\" tall, 3.25\" dia.","property_name":"Size"}],"classifications":[{"taxon_id":4,"position":1,"taxon":{"id":4,"name":"Mugs","pretty_name":"Categories -\u003e Mugs","permalink":"categories/mugs","parent_id":1,"taxonomy_id":1,"taxons":[]}},{"taxon_id":11,"position":3,"taxon":{"id":11,"name":"Rails","pretty_name":"Brand -\u003e Rails","permalink":"brand/rails","parent_id":2,"taxonomy_id":2,"taxons":[]}}],"has_variants":false}
{"_id":{"$oid":"59a1aab644920220462711d3"},"id":14,"name":"Ruby on Rails Stein","description":"Ut deleniti occaecati ea fuga quam et libero. Cumque et velit provident est hic doloribus nostrum aut. Dolores eum nihil vitae voluptates.","price":"16.99","display_price":"$16.99","available_on":"2017-08-16T12:07:33.174Z","slug":"ruby-on-rails-stein","meta_description":null,"meta_keywords":null,"shipping_category_id":1,"taxon_ids":[4,11],"total_on_hand":8,"master":{"id":14,"name":"Ruby on Rails Stein","sku":"ROR-00016","price":"16.99","weight":"0.0","height":null,"width":null,"depth":null,"is_master":true,"slug":"ruby-on-rails-stein","description":"Ut deleniti occaecati ea fuga quam et libero. Cumque et velit provident est hic doloribus nostrum aut. Dolores eum nihil vitae voluptates.","track_inventory":true,"option_values":[],"images":[{"id":31,"position":1,"attachment_content_type":"image/jpeg","attachment_file_name":"ror_stein.jpeg","type":"Spree::Image","attachment_updated_at":"2017-08-16T12:08:37.822Z","attachment_width":360,"attachment_height":360,"alt":null,"viewable_type":"Spree::Variant","viewable_id":14,"mini_url":"/spree/products/31/mini/ror_stein.jpeg?1502885317","small_url":"/spree/products/31/small/ror_stein.jpeg?1502885317","product_url":"/spree/products/31/product/ror_stein.jpeg?1502885317","large_url":"/spree/products/31/large/ror_stein.jpeg?1502885317"},{"id":32,"position":2,"attachment_content_type":"image/jpeg","attachment_file_name":"ror_stein_back.jpeg","type":"Spree::Image","attachment_updated_at":"2017-08-16T12:08:39.411Z","attachment_width":360,"attachment_height":360,"alt":null,"viewable_type":"Spree::Variant","viewable_id":14,"mini_url":"/spree/products/32/mini/ror_stein_back.jpeg?1502885319","small_url":"/spree/products/32/small/ror_stein_back.jpeg?1502885319","product_url":"/spree/products/32/product/ror_stein_back.jpeg?1502885319","large_url":"/spree/products/32/large/ror_stein_back.jpeg?1502885319"}],"display_price":"$16.99","options_text":"","in_stock":true,"is_backorderable":false,"total_on_hand":8,"is_destroyed":false},"variants":[],"option_types":[],"product_properties":[{"id":33,"product_id":14,"property_id":9,"value":"Stein","property_name":"Type"},{"id":34,"product_id":14,"property_id":10,"value":"6.75\" tall, 3.75\" dia. base, 3\" dia. rim","property_name":"Size"}],"classifications":[{"taxon_id":4,"position":2,"taxon":{"id":4,"name":"Mugs","pretty_name":"Categories -\u003e Mugs","permalink":"categories/mugs","parent_id":1,"taxonomy_id":1,"taxons":[]}},{"taxon_id":11,"position":4,"taxon":{"id":11,"name":"Rails","pretty_name":"Brand -\u003e Rails","permalink":"brand/rails","parent_id":2,"taxonomy_id":2,"taxons":[]}}],"has_variants":false}
{"_id":{"$oid":"59a1aab644920220462711d4"},"id":15,"name":"Spree Stein","description":"Ut deleniti occaecati ea fuga quam et libero. Cumque et velit provident est hic doloribus nostrum aut. Dolores eum nihil vitae voluptates.","price":"16.99","display_price":"$16.99","available_on":"2017-08-16T12:07:33.174Z","slug":"spree-stein","meta_description":null,"meta_keywords":null,"shipping_category_id":1,"taxon_ids":[4,10],"total_on_hand":9,"master":{"id":15,"name":"Spree Stein","sku":"SPR-00016","price":"16.99","weight":"0.0","height":null,"width":null,"depth":null,"is_master":true,"slug":"spree-stein","description":"Ut deleniti occaecati ea fuga quam et libero. Cumque et velit provident est hic doloribus nostrum aut. Dolores eum nihil vitae voluptates.","track_inventory":true,"option_values":[],"images":[{"id":43,"position":1,"attachment_content_type":"image/jpeg","attachment_file_name":"spree_stein.jpeg","type":"Spree::Image","attachment_updated_at":"2017-08-16T12:08:54.679Z","attachment_width":480,"attachment_height":480,"alt":null,"viewable_type":"Spree::Variant","viewable_id":15,"mini_url":"/spree/products/43/mini/spree_stein.jpeg?1502885334","small_url":"/spree/products/43/small/spree_stein.jpeg?1502885334","product_url":"/spree/products/43/product/spree_stein.jpeg?1502885334","large_url":"/spree/products/43/large/spree_stein.jpeg?1502885334"},{"id":44,"position":2,"attachment_content_type":"image/jpeg","attachment_file_name":"spree_stein_back.jpeg","type":"Spree::Image","attachment_updated_at":"2017-08-16T12:08:55.995Z","attachment_width":480,"attachment_height":480,"alt":null,"viewable_type":"Spree::Variant","viewable_id":15,"mini_url":"/spree/products/44/mini/spree_stein_back.jpeg?1502885335","small_url":"/spree/products/44/small/spree_stein_back.jpeg?1502885335","product_url":"/spree/products/44/product/spree_stein_back.jpeg?1502885335","large_url":"/spree/products/44/large/spree_stein_back.jpeg?1502885335"}],"display_price":"$16.99","options_text":"","in_stock":true,"is_backorderable":false,"total_on_hand":9,"is_destroyed":false},"variants":[],"option_types":[],"product_properties":[{"id":35,"product_id":15,"property_id":9,"value":"Stein","property_name":"Type"},{"id":36,"product_id":15,"property_id":10,"value":"6.75\" tall, 3.75\" dia. base, 3\" dia. rim","property_name":"Size"}],"classifications":[{"taxon_id":4,"position":3,"taxon":{"id":4,"name":"Mugs","pretty_name":"Categories -\u003e Mugs","permalink":"categories/mugs","parent_id":1,"taxonomy_id":1,"taxons":[]}},{"taxon_id":10,"position":1,"taxon":{"id":10,"name":"Spree","pretty_name":"Brand -\u003e Spree","permalink":"brand/spree","parent_id":2,"taxonomy_id":2,"taxons":[]}}],"has_variants":false}
{"_id":{"$oid":"59a1aab644920220462711d5"},"id":16,"name":"Spree Mug","description":"Ut deleniti occaecati ea fuga quam et libero. Cumque et velit provident est hic doloribus nostrum aut. Dolores eum nihil vitae voluptates.","price":"13.99","display_price":"$13.99","available_on":"2017-08-16T12:07:33.174Z","slug":"spree-mug","meta_description":null,"meta_keywords":null,"shipping_category_id":1,"taxon_ids":[4,10],"total_on_hand":9,"master":{"id":16,"name":"Spree Mug","sku":"SPR-00014","price":"13.99","weight":"0.0","height":null,"width":null,"depth":null,"is_master":true,"slug":"spree-mug","description":"Ut deleniti occaecati ea fuga quam et libero. Cumque et velit provident est hic doloribus nostrum aut. Dolores eum nihil vitae voluptates.","track_inventory":true,"option_values":[],"images":[{"id":45,"position":1,"attachment_content_type":"image/jpeg","attachment_file_name":"spree_mug.jpeg","type":"Spree::Image","attachment_updated_at":"2017-08-16T12:08:56.978Z","attachment_width":240,"attachment_height":240,"alt":null,"viewable_type":"Spree::Variant","viewable_id":16,"mini_url":"/spree/products/45/mini/spree_mug.jpeg?1502885336","small_url":"/spree/products/45/small/spree_mug.jpeg?1502885336","product_url":"/spree/products/45/product/spree_mug.jpeg?1502885336","large_url":"/spree/products/45/large/spree_mug.jpeg?1502885336"},{"id":46,"position":2,"attachment_content_type":"image/jpeg","attachment_file_name":"spree_mug_back.jpeg","type":"Spree::Image","attachment_updated_at":"2017-08-16T12:08:57.787Z","attachment_width":240,"attachment_height":240,"alt":null,"viewable_type":"Spree::Variant","viewable_id":16,"mini_url":"/spree/products/46/mini/spree_mug_back.jpeg?1502885337","small_url":"/spree/products/46/small/spree_mug_back.jpeg?1502885337","product_url":"/spree/products/46/product/spree_mug_back.jpeg?1502885337","large_url":"/spree/products/46/large/spree_mug_back.jpeg?1502885337"}],"display_price":"$13.99","options_text":"","in_stock":true,"is_backorderable":false,"total_on_hand":9,"is_destroyed":false},"variants":[],"option_types":[],"product_properties":[{"id":37,"product_id":16,"property_id":9,"value":"Mug","property_name":"Type"},{"id":38,"product_id":16,"property_id":10,"value":"4.5\" tall, 3.25\" dia.","property_name":"Size"}],"classifications":[{"taxon_id":4,"position":4,"taxon":{"id":4,"name":"Mugs","pretty_name":"Categories -\u003e Mugs","permalink":"categories/mugs","parent_id":1,"taxonomy_id":1,"taxons":[]}},{"taxon_id":10,"position":2,"taxon":{"id":10,"name":"Spree","pretty_name":"Brand -\u003e Spree","permalink":"brand/spree","parent_id":2,"taxonomy_id":2,"taxons":[]}}],"has_variants":false}
